{
    "nombre":"Hugo Sanchez",
    "email": "hugo.sanchez@gmail.com",
    "edad" : 43,
    "sexo" : "H",
    "telefono" : "2781092116",
    "color" : "#2d572c",
    "fechaNacimiento": "1976-10-08",
    "trabajo":{
        "puesto":"Desarrollador",
        "email" : "hugo.sanchez@consultora.team",
        "telefono": "4455332599"
    }
    
}